../assembled/EN/A4/m137-m130-m19-m124-m107-m52-m40-m82.svg
../assembled/EN/A4/t35-t16-t7-t8-t31-t33-t12-t26.svg
../assembled/EN/A4/ja6-ma9-ra2-scg5-ma10-ma7-ra1-scg4.svg
../assembled/EN/A4/a4-a6-a3-a21-a20-a9-a17-a19.svg
../assembled/EN/A4/p7-p2-s1-s3-s4-s2-ja2-ma6.svg
../assembled/EN/A4/stsct1-stsct3-stsct2-e3-e4-e2-e6-e1.svg
../assembled/EN/A4/co4-co6-co7-co8-co12-co10-co9-co11.svg
../assembled/EN/A4/m115b-m2-m126-m22-m30-m42-m105-m43.svg
../assembled/EN/A4/sk1-m100-m8-m78-m6-m41b-m121-m115.svg
../assembled/EN/A4/a15-a22-a13-a1-a8-a14-a7-a5.svg
../assembled/EN/A4/b4-b3-b1-b2-eye1-endo1-philo2-philo1.svg
../assembled/EN/A4/m88b-m106-m120-m141-m16-m90-m3-m13.svg
../assembled/EN/A4/dc2-dc3-dc8-dc10-dc9-dc1-dc4-dc7.svg
../assembled/EN/A4/t11-t9-t29-t24-t4-t10-t1-t23.svg
../assembled/EN/A4/m122-m125-m48-m95-m63-m131-m134-m54.svg
../assembled/EN/A4/m60-m29-m62-m37-m146-m66-m61-m49.svg
../assembled/EN/A4/m24-m138-m55-m136-m93-m84-m129-m83.svg
../assembled/EN/A4/a11-a16b-a18-a16-a23-a12-a24.svg
../assembled/EN/A4/t38.svg.2019?12_20_04_39_31.0-t18-t37-t28-t34-t5-t3-t13.svg
../assembled/EN/A4/e5-r1-ibm1-c64-dp3-dp1-dp4-dp2.svg
../assembled/EN/A4/ra4-g4-ma1-ma11-w2-ja1-scg2-ma4.svg
../assembled/EN/A4/m21-m89-m46-m35-m147-m53-m28-m119.svg
../assembled/EN/A4/dc5-t20-t6-t30-t22-t21-t36-t27.svg
../assembled/EN/A4/mos6-mos3-mos5-mos2-mos1-mos4-bo1-smoke1.svg
../assembled/EN/A4/m103-m67-m7-m58-m32-m23-m94-m51.svg
../assembled/EN/A4/m18-m108-m12-m86-m145-m113-m85-m70.svg
../assembled/EN/A4/m1-m5-t63-m116-m57-m139-m144-m112.svg
../assembled/EN/A4/m44-m110-m98-m101-m15-mod2-m88-t61-m45.svg
../assembled/EN/A4/m97-m65-m142-m10-m38-m81-m17-m15.svg
../assembled/EN/A4/gp1-c2-c1-env2-env1-env3-a2-a10.svg
../assembled/EN/A4/ha1-ra5-ma3-ja7-ja4-scg6-ra3-ma8.svg
../assembled/EN/A4/m41-m135-m15-mod-m50-m69-m118-m148-m77.svg
../assembled/EN/A4/m102-bio1-b4-b3-b1-b2-eye1-endo1.svg
../assembled/EN/A4/w1-ma5-g3-scg1-ma2-ja5-scg3-ja3.svg
../assembled/EN/A4/m133-m47-m109-m9-m20-m80-m11-m99.svg
../assembled/EN/A4/co1-c09-co2-co5-c12-co3-q1-cpu1.svg
../assembled/EN/A4/m14-m71-m79-m75-m76-m132-m128-m149.svg
../assembled/EN/A4/p8-p1-p3-p4-mp2-p6-mp1-p5.svg
../assembled/EN/A4/m123-m56-m74-m4-m73-m104-m27-m92.svg
../assembled/EN/A4/m68-m72-m127-m31-m25-m114-m64-m111.svg
../assembled/EN/A4/m117-m91-m26-m59-m143-m96-m140-m87.svg
../assembled/EN/A4/t38-t32-t14-t2-t15-t25-t39-t19.svg
../assembled/EN/A4/g1-at1-g2-dt2-dt4-dt3-dt1-dc6.svg
